Midterm 2 W26
…
/ For “urea_nitrogen”, the min is 1.00, the median is 11.00, the mean
is 15.13, and the max is 69.00. For “creatinine”, the min is 0.350, the
median is 1.050, the mean is 1.079, and the max is 2.350. / 6. (3
points) As explained above, the ratio of urea_nitrogen to
creatinine is used as an index of fasting. To calculate the
ratio, we need to multiply urea_nitrogen by 0.466, then
divide by creatinine. Create a new variable called
un_creat_ratio that contains this calculation.

polar_bears_cleaned %>% 
  select(urea_nitrogen, creatinine) %>% 
  mutate(un_creat_ratio = (urea_nitrogen*0.466)/creatinine)

## # A tibble: 519 × 3
##    urea_nitrogen creatinine un_creat_ratio
##            <dbl>      <dbl>          <dbl>
##  1          12.3       0.57         10.1  
##  2           3         1.45          0.964
##  3          30         0.85         16.4  
##  4          18         1.1           7.63 
##  5          10         1             4.66 
##  6           5         1.3           1.79 
##  7          29.5       0.65         21.1  
##  8          29         0.7          19.3  
##  9          19.5       1.2           7.57 
## 10          29         0.5          27.0  
## # ℹ 509 more rows
…
polar_bears_cleaned %>% 
  select(urea_nitrogen, creatinine) %>% 
  mutate(un_creat_ratio = (urea_nitrogen*0.466)/creatinine) %>%
  mutate(
    fasting = case_when(
      un_creat_ratio <= 10 ~ "yes",
      un_creat_ratio > 10 ~ "no"
      )
    )

## # A tibble: 519 × 4
##    urea_nitrogen creatinine un_creat_ratio fasting
##            <dbl>      <dbl>          <dbl> <chr>  
##  1          12.3       0.57         10.1   no     
##  2           3         1.45          0.964 yes    
##  3          30         0.85         16.4   no     
##  4          18         1.1           7.63  yes    
##  5          10         1             4.66  yes    
##  6           5         1.3           1.79  yes    
##  7          29.5       0.65         21.1   no     
##  8          29         0.7          19.3   no     
##  9          19.5       1.2           7.57  yes    
## 10          29         0.5          27.0   no     
## # ℹ 509 more rows
…
