…
## 3. Are there any missing values in the data? If so, which variables contain missing values and how many are missing for each variable?


4. How many countries are represented in the data?

``` r
fisheries_clean %>% 
  distinct(country)
```

```
## # A tibble: 249 × 1
##    country            
##    <fct>              
##  1 Afghanistan        
##  2 Albania            
##  3 Algeria            
##  4 American Samoa     
##  5 Andorra            
##  6 Angola             
##  7 Anguilla           
##  8 Antigua and Barbuda
##  9 Argentina          
## 10 Armenia            
## # ℹ 239 more rows
```
\
249 countries are represented in the data.
\
\
5. The variables `common_name` and `taxonomic_code` both refer to species. How many unique species are represented in the data based on each of these variables? Are the numbers the same or different?

``` r
fisheries_clean %>% 
  distinct(common_name) 
```

```
## # A tibble: 3,390 × 1
##    common_name            
##    <fct>                  
##  1 Freshwater fishes NEI  
##  2 Crucian carp           
##  3 Common carp            
##  4 Grass carp(=White amur)
##  5 Silver carp            
##  6 Bighead carp           
##  7 Wuchang bream          
##  8 Bleak                  
##  9 Orfe(=Ide)             
## 10 Common dace            
## # ℹ 3,380 more rows
```

``` r
fisheries_clean %>% 
  distinct(taxonomic_code)
```

```
## # A tibble: 3,722 × 1
##    taxonomic_code 
##    <fct>          
##  1 1990XXXXXXXX106
##  2 140014109002   
##  3 140014113401   
##  4 140018102601   
##  5 140018104601   
##  6 140018104602   
##  7 140018105801   
##  8 140023102602   
##  9 140023114204   
## 10 140023114205   
## # ℹ 3,712 more rows
```
…
``` r
fisheries_clean %>% 
  select(period, country, common_name, catch) %>%
  filter(country == "China") %>% 
  filter(period == c("2013", "2014", "2015", "2017", "2018", "2019", "2020", "2021", "2022", "2023")) %>% 
  group_by(common_name) %>% 
  summarise(average_caught = mean(catch)) %>% 
  filter(average_caught != 0) %>% 
  arrange(desc(average_caught))
```

```
## # A tibble: 25 × 2
##    common_name             average_caught
##    <fct>                            <dbl>
##  1 Marine molluscs NEI            388947.
##  2 Daggertooth pike conger        379929.
##  3 Aquatic plants NEI             198699.
##  4 Sardinellas NEI                182613.
##  5 Porgies, seabreams NEI         133162.
##  6 Marine crabs NEI                94044.
##  7 Charybdis crabs NEI             58562.
##  8 Albacore                         3018.
##  9 Bigeye tuna                       778.
## 10 Marine fishes NEI                 674.
## # ℹ 15 more rows
```
…
